\relax 
\providecommand\hyper@newdestlabel[2]{}
\providecommand\HyperFirstAtBeginDocument{\AtBeginDocument}
\HyperFirstAtBeginDocument{\ifx\hyper@anchor\@undefined
\global\let\oldcontentsline\contentsline
\gdef\contentsline#1#2#3#4{\oldcontentsline{#1}{#2}{#3}}
\global\let\oldnewlabel\newlabel
\gdef\newlabel#1#2{\newlabelxx{#1}#2}
\gdef\newlabelxx#1#2#3#4#5#6{\oldnewlabel{#1}{{#2}{#3}}}
\AtEndDocument{\ifx\hyper@anchor\@undefined
\let\contentsline\oldcontentsline
\let\newlabel\oldnewlabel
\fi}
\fi}
\global\let\hyper@last\relax 
\gdef\HyperFirstAtBeginDocument#1{#1}
\providecommand\HyField@AuxAddToFields[1]{}
\providecommand\HyField@AuxAddToCoFields[2]{}
\@writefile{toc}{\contentsline {section}{Counting}{1}{Doc-Start}}
\@writefile{toc}{\contentsline {subsection}{Sampling Table}{1}{section*.1}}
\@writefile{toc}{\contentsline {subsubsection}{\color@fb@x {}{black}{}{white}{\leavevmode {\color  {WildStrawberry}Bose-Einstein}} clarification}{1}{section*.1}}
\@writefile{toc}{\contentsline {subsection}{Naive Definition of Probability}{1}{section*.1}}
\@writefile{toc}{\contentsline {section}{Thinking Conditionally}{1}{section*.1}}
\@writefile{toc}{\contentsline {subsection}{Independence}{1}{section*.2}}
\@writefile{toc}{\contentsline {subsection}{Unions, Intersections, and Complements}{1}{section*.2}}
\@writefile{toc}{\contentsline {subsection}{Joint, Marginal, and Conditional}{1}{section*.2}}
\@writefile{toc}{\contentsline {subsection}{Probability of an Intersection or Union}{1}{section*.2}}
\@writefile{toc}{\contentsline {subsection}{Simpson's Paradox}{1}{section*.2}}
\@writefile{toc}{\contentsline {subsection}{Law of Total Probability (\color@fb@x {}{black}{}{white}{\leavevmode {\color  {WildStrawberry}LOTP}})}{1}{section*.2}}
\@writefile{toc}{\contentsline {subsection}{\color@fb@x {}{black}{}{white}{\leavevmode {\color  {WildStrawberry}Bayes'}} Rule}{1}{section*.2}}
\@writefile{toc}{\contentsline {section}{Random Variables and their Distributions}{1}{section*.2}}
\@writefile{toc}{\contentsline {subsection}{PMF, CDF, and Independence}{1}{section*.3}}
\@writefile{toc}{\contentsline {section}{Expected Value and Indicators}{1}{section*.3}}
\@writefile{toc}{\contentsline {subsection}{Expected Value and Linearity}{1}{section*.4}}
\@writefile{toc}{\contentsline {subsection}{Indicator Random Variables}{2}{section*.4}}
\@writefile{toc}{\contentsline {subsection}{\color@fb@x {}{black}{}{white}{\leavevmode {\color  {WildStrawberry}Variance}} and Standard Deviation}{2}{section*.4}}
\@writefile{toc}{\contentsline {section}{Continuous RVs, LOTUS, UoU}{2}{section*.4}}
\@writefile{toc}{\contentsline {subsection}{Continuous Random Variables (CRVs)}{2}{section*.5}}
\newlabel{lotus}{{}{2}{Continuous Random Variables (CRVs)}{section*.5}{}}
\@writefile{toc}{\contentsline {subsection}{\color@fb@x {}{black}{}{white}{\leavevmode {\color  {WildStrawberry}LOTUS}}}{2}{section*.5}}
\@writefile{toc}{\contentsline {subsection}{Universality of Uniform (UoU)}{2}{section*.5}}
\@writefile{toc}{\contentsline {section}{Continuous Distributions}{2}{section*.5}}
\@writefile{toc}{\contentsline {subsection}{Uniform Distribution \color@fb@x {}{black}{}{white}{\leavevmode {\color  {WildStrawberry}$\textrm  {Unif}(a,b)$}}}{2}{section*.6}}
\@writefile{toc}{\contentsline {subsection}{Normal Distribution \color@fb@x {}{black}{}{white}{\leavevmode {\color  {WildStrawberry}$\mathcal  {N}(\mu ,\sigma ^2)$}}}{2}{section*.6}}
\@writefile{toc}{\contentsline {section}{Discrete Distributions}{2}{section*.6}}
\@writefile{toc}{\contentsline {subsection}{Distributions for four sampling schemes}{2}{section*.7}}
\@writefile{toc}{\contentsline {subsection}{Bernoulli Distribution \color@fb@x {}{black}{}{white}{\leavevmode {\color  {WildStrawberry}$\textrm  {Bern}(p)$}}}{2}{section*.7}}
\@writefile{toc}{\contentsline {subsection}{Binomial Distribution \color@fb@x {}{black}{}{white}{\leavevmode {\color  {WildStrawberry}$\textrm  {Bin}(n, p)$}}}{2}{section*.7}}
\@writefile{toc}{\contentsline {subsection}{Geometric Distribution \color@fb@x {}{black}{}{white}{\leavevmode {\color  {WildStrawberry}$\textrm  {Geom}(p)$}}}{3}{section*.7}}
\@writefile{toc}{\contentsline {subsection}{First Success Distribution \color@fb@x {}{black}{}{white}{\leavevmode {\color  {WildStrawberry}$\textrm  {FS}(p)$}}}{3}{section*.7}}
\@writefile{toc}{\contentsline {subsection}{Negative Binomial Distribution \color@fb@x {}{black}{}{white}{\leavevmode {\color  {WildStrawberry}$\textrm  {NBin}(r,p)$}}}{3}{section*.7}}
\@writefile{toc}{\contentsline {subsection}{Hypergeometric Distribution \color@fb@x {}{black}{}{white}{\leavevmode {\color  {WildStrawberry}$\textrm  {HGeom}(w,b,n)$}}}{3}{section*.7}}
\@writefile{toc}{\contentsline {subsection}{Negative Hypergeometric Dist. \color@fb@x {}{black}{}{white}{\leavevmode {\color  {WildStrawberry}$\textrm  {NHGeom}(w,b,r)$}}}{3}{section*.7}}
\@writefile{toc}{\contentsline {subsection}{Poisson Distribution \color@fb@x {}{black}{}{white}{\leavevmode {\color  {WildStrawberry}$\textrm  {Pois}(\lambda )$}}}{3}{section*.7}}
\@writefile{toc}{\contentsline {section}{Formulas}{3}{Item.3}}
\@writefile{toc}{\contentsline {subsection}{Geometric Series}{3}{section*.8}}
\@writefile{toc}{\contentsline {subsection}{Exponential Function ($e^x$)}{3}{section*.8}}
\@writefile{toc}{\contentsline {subsection}{Vandermonde's Identity}{3}{section*.8}}
\@writefile{toc}{\contentsline {subsection}{Gambler's Ruin}{3}{section*.8}}
\@writefile{toc}{\contentsline {section}{Calculus}{3}{section*.8}}
\@writefile{toc}{\contentsline {subsection}{Derivatives}{3}{section*.9}}
\@writefile{toc}{\contentsline {subsubsection}{Fundamental Rules}{3}{section*.9}}
\@writefile{toc}{\contentsline {subsubsection}{Common Derivatives}{3}{section*.9}}
\@writefile{toc}{\contentsline {subsubsection}{Special Cases}{3}{section*.9}}
\@writefile{toc}{\contentsline {subsection}{Integrals}{3}{section*.9}}
\@writefile{toc}{\contentsline {subsubsection}{Common Integrals}{3}{section*.10}}
\@writefile{toc}{\contentsline {subsubsection}{$u$ Substitution}{3}{section*.10}}
\@writefile{toc}{\contentsline {subsubsection}{Integration by Parts}{3}{section*.10}}
\@writefile{toc}{\contentsline {section}{Example Problems}{4}{section*.10}}
\@writefile{toc}{\contentsline {subsection}{Calculating Probability}{4}{section*.11}}
\@writefile{toc}{\contentsline {subsection}{Linearity and Indicators (1)}{4}{section*.11}}
\@writefile{toc}{\contentsline {subsection}{Linearity and Indicators (2)}{4}{section*.11}}
\@writefile{toc}{\contentsline {subsection}{Linearity and First Success}{4}{section*.11}}
\@writefile{toc}{\contentsline {subsection}{Orderings of i.i.d. random variables}{4}{section*.11}}
\@writefile{toc}{\contentsline {subsection}{Expectation of Negative Hypergeometric}{4}{section*.11}}
\@writefile{toc}{\contentsline {subsection}{Pattern-matching with $e^x$ Taylor series}{4}{section*.11}}
\@writefile{toc}{\contentsline {subsection}{Fisher Exact Test (Binomial-Hypergeometric Connection)}{4}{section*.11}}
\@writefile{toc}{\contentsline {subsection}{Girls}{4}{section*.11}}
\@writefile{toc}{\contentsline {subsubsection}{Named}{4}{section*.12}}
\@writefile{toc}{\contentsline {subsubsection}{Unnamed}{4}{section*.12}}
\@writefile{toc}{\contentsline {subsubsection}{Winter Girl (Partially Named)}{4}{section*.12}}
\@writefile{toc}{\contentsline {section}{Problem-Solving Strategies}{4}{section*.12}}
